{
  "backpack" : {
    "category" : "backpack",
    "description" : "Backpack tag for most rewards",
    "icon" : "loyalty",
    "types" : {
      "qrc" : {
        "imagePath" : "/tags/backpack-qrc.png"
      },
      "tag" : {
        "imagePath" : "/tags/backpack-tag.png"
      },
      "clipper" : {
        "imagePath" : "/tags/clipper-sqaure.png"
      }
    }
  },
  "bike" : {
    "category" : "bike",
    "description" : "20 Points for biking",
    "icon" : "directions_bike",
    "points" : 20,
    "types" : {
      "tag" : {
        "description" : "A School Tag minion scans when a bike is parked in the bike rack",
        "imagePath" : "/tags/bike-tag-red.png"
      }
    }
  },
  "bus" : {
    "category" : "bus",
    "icon" : "directions_bus"
  },
  "walk" : {
    "category" : "walk",
    "icon" : "directions_walk"
  }
}
